(kicad_pcb (version 20221018) (generator pcbnew)

  (general
    (thickness 1.6)
  )

  (paper "A5")
  (title_block
    (title "Drehencoder für 27C400 Emulator")
    (date "2023-06-04")
    (rev "1.0")
  )

  (layers
    (0 "F.Cu" signal)
    (31 "B.Cu" signal)
    (32 "B.Adhes" user "B.Adhesive")
    (33 "F.Adhes" user "F.Adhesive")
    (34 "B.Paste" user)
    (35 "F.Paste" user)
    (36 "B.SilkS" user "B.Silkscreen")
    (37 "F.SilkS" user "F.Silkscreen")
    (38 "B.Mask" user)
    (39 "F.Mask" user)
    (40 "Dwgs.User" user "User.Drawings")
    (41 "Cmts.User" user "User.Comments")
    (42 "Eco1.User" user "User.Eco1")
    (43 "Eco2.User" user "User.Eco2")
    (44 "Edge.Cuts" user)
    (45 "Margin" user)
    (46 "B.CrtYd" user "B.Courtyard")
    (47 "F.CrtYd" user "F.Courtyard")
    (48 "B.Fab" user)
    (49 "F.Fab" user)
    (50 "User.1" user)
    (51 "User.2" user)
    (52 "User.3" user)
    (53 "User.4" user)
    (54 "User.5" user)
    (55 "User.6" user)
    (56 "User.7" user)
    (57 "User.8" user)
    (58 "User.9" user)
  )

  (setup
    (pad_to_mask_clearance 0)
    (aux_axis_origin 91.44 83.82)
    (pcbplotparams
      (layerselection 0x00010fc_ffffffff)
      (plot_on_all_layers_selection 0x0000000_00000000)
      (disableapertmacros false)
      (usegerberextensions false)
      (usegerberattributes true)
      (usegerberadvancedattributes true)
      (creategerberjobfile true)
      (dashed_line_dash_ratio 12.000000)
      (dashed_line_gap_ratio 3.000000)
      (svgprecision 4)
      (plotframeref false)
      (viasonmask false)
      (mode 1)
      (useauxorigin false)
      (hpglpennumber 1)
      (hpglpenspeed 20)
      (hpglpendiameter 15.000000)
      (dxfpolygonmode true)
      (dxfimperialunits true)
      (dxfusepcbnewfont true)
      (psnegative false)
      (psa4output false)
      (plotreference true)
      (plotvalue true)
      (plotinvisibletext false)
      (sketchpadsonfab false)
      (subtractmaskfromsilk false)
      (outputformat 1)
      (mirror false)
      (drillshape 1)
      (scaleselection 1)
      (outputdirectory "")
    )
  )

  (net 0 "")
  (net 1 "GND")
  (net 2 "+5V")
  (net 3 "/A19")
  (net 4 "/A18")
  (net 5 "Net-(SW1-D3)")
  (net 6 "Net-(SW1-D1)")
  (net 7 "Net-(SW1-D2)")
  (net 8 "unconnected-(SW1-D0-Pad2)")

  (footprint "1.Eigenes:Rotary_CTS_220AM_04R" (layer "F.Cu")
    (tstamp 01767644-abba-4b09-9595-c9f8c90d867a)
    (at 99.06 80.01 180)
    (property "LCSC" " C6050741")
    (property "Mouser" " 774-220AMC04R ")
    (property "Sheetfile" "Amiga_27C400_Emulator_Rotary_Switch.kicad_sch")
    (property "Sheetname" "")
    (property "ki_description" "Rotary switch, 4-bit encoding")
    (property "ki_keywords" "rotary hex")
    (path "/6d691649-53aa-4ee8-9bc9-5e7e34d16bf8")
    (attr smd)
    (fp_text reference "SW1" (at 5.715 3.81 unlocked) (layer "F.SilkS")
        (effects (font (size 1 1) (thickness 0.15)))
      (tstamp b3307845-f402-4474-9c2f-232784e92941)
    )
    (fp_text value "SW_Coded" (at 0 6.6 -180 unlocked) (layer "F.Fab")
        (effects (font (size 1 1) (thickness 0.15)))
      (tstamp e441897e-4146-40b4-b8ea-8a714c2c5fba)
    )
    (fp_text user "${REF}" (at 0 4.8 -180 unlocked) (layer "F.Fab")
        (effects (font (size 1 1) (thickness 0.15)))
      (tstamp a31033a2-4352-45ab-bbf7-14fa6e6af267)
    )
    (fp_line (start -3.6 -3.6) (end 3.6 -3.6)
      (stroke (width 0.12) (type default)) (layer "F.SilkS") (tstamp df8b70ea-97dd-435c-b296-66c4f7b4e345))
    (fp_line (start -3.6 -3.4) (end -3.6 -3.6)
      (stroke (width 0.12) (type default)) (layer "F.SilkS") (tstamp c27f671d-a2d9-4037-b389-13c180927850))
    (fp_line (start -3.6 -1.8) (end -3.6 -0.8)
      (stroke (width 0.12) (type default)) (layer "F.SilkS") (tstamp ffbe7f44-7dcf-4c15-b103-a21852054a2e))
    (fp_line (start -3.6 1.8) (end -3.6 0.8)
      (stroke (width 0.12) (type default)) (layer "F.SilkS") (tstamp e5abfc14-90ba-4225-9fbf-220c265f1fb7))
    (fp_line (start -3.6 3.4) (end -3.6 3.6)
      (stroke (width 0.12) (type default)) (layer "F.SilkS") (tstamp 4e8dd638-e32c-4e66-8222-ba1c801d6e20))
    (fp_line (start -3.6 3.6) (end 3.6 3.6)
      (stroke (width 0.12) (type default)) (layer "F.SilkS") (tstamp 51017c30-9a12-4731-b516-756ab7960df1))
    (fp_line (start -0.4 -0.8) (end 0 -1.2)
      (stroke (width 0.12) (type default)) (layer "F.SilkS") (tstamp 35c71585-c926-4108-a7e9-25d5cf8a49c4))
    (fp_line (start 0 -1.2) (end -0.4 -0.8)
      (stroke (width 0.12) (type default)) (layer "F.SilkS") (tstamp b5a46ef0-6222-48ec-a1dd-655354a4f24e))
    (fp_line (start 0 1.2) (end 0 -1.2)
      (stroke (width 0.12) (type default)) (layer "F.SilkS") (tstamp 7afcdf29-0c9a-4603-b812-2af24e2a4d37))
    (fp_line (start 0.4 -0.8) (end 0 -1.2)
      (stroke (width 0.12) (type default)) (layer "F.SilkS") (tstamp a755b09f-461e-4a7f-bb0e-d7831f059fd6))
    (fp_line (start 3.6 -3.6) (end 3.6 -3.4)
      (stroke (width 0.12) (type default)) (layer "F.SilkS") (tstamp 07da161a-ec23-4bed-8bf7-934a0de94a75))
    (fp_line (start 3.6 -1.8) (end 3.6 -0.8)
      (stroke (width 0.12) (type default)) (layer "F.SilkS") (tstamp 809623ce-e6d6-4be7-a128-68a15c6dfa75))
    (fp_line (start 3.6 1.8) (end 3.6 0.8)
      (stroke (width 0.12) (type default)) (layer "F.SilkS") (tstamp 309a1b79-877b-46aa-8d0e-a6e6572fc9c6))
    (fp_line (start 3.6 3.6) (end 3.6 3.4)
      (stroke (width 0.12) (type default)) (layer "F.SilkS") (tstamp a097369d-4b5a-42c8-a562-e7db3f5f43ba))
    (fp_circle (center 0 0) (end 1.6 0)
      (stroke (width 0.12) (type default)) (fill none) (layer "F.SilkS") (tstamp 1c6f5778-0fff-48c4-b060-2bedc3558a91))
    (fp_rect (start -3.8 -3.8) (end 3.8 3.8)
      (stroke (width 0.05) (type default)) (fill none) (layer "F.CrtYd") (tstamp 82b41619-8995-4f4b-a951-9a0a3b40aa0f))
    (pad "1" smd rect (at -3.75 0 180) (size 3 1) (layers "F.Cu" "F.Paste" "F.Mask")
      (net 2 "+5V") (pinfunction "CM") (pintype "passive") (thermal_bridge_angle 45) (tstamp fa4bfdb4-f01f-4608-9c15-c5117fb096eb))
    (pad "1" smd rect (at 3.75 0 180) (size 3 1) (layers "F.Cu" "F.Paste" "F.Mask")
      (net 2 "+5V") (pinfunction "CM") (pintype "passive") (thermal_bridge_angle 45) (tstamp a01a051d-b524-4f9f-90b8-54edc4b5ce1b))
    (pad "2" smd rect (at -3.75 2.54 180) (size 3 1) (layers "F.Cu" "F.Paste" "F.Mask")
      (net 8 "unconnected-(SW1-D0-Pad2)") (pinfunction "D0") (pintype "passive+no_connect") (thermal_bridge_angle 45) (tstamp 2a007558-6f68-4804-befb-98fa7ac15296))
    (pad "3" smd rect (at -3.75 -2.54 180) (size 3 1) (layers "F.Cu" "F.Paste" "F.Mask")
      (net 6 "Net-(SW1-D1)") (pinfunction "D1") (pintype "passive") (thermal_bridge_angle 45) (tstamp 8b6f6e2d-3293-407f-aaf2-08688f1644ba))
    (pad "4" smd rect (at 3.75 -2.54 180) (size 3 1) (layers "F.Cu" "F.Paste" "F.Mask")
      (net 7 "Net-(SW1-D2)") (pinfunction "D2") (pintype "passive") (thermal_bridge_angle 45) (tstamp 024c81be-01ea-4002-94b9-890ea0f30c83))
    (pad "5" smd rect (at 3.75 2.54 180) (size 3 1) (layers "F.Cu" "F.Paste" "F.Mask")
      (net 5 "Net-(SW1-D3)") (pinfunction "D3") (pintype "passive") (thermal_bridge_angle 45) (tstamp 1f60df28-2b48-4902-b093-43bfa497f0bd))
  )

  (footprint "Package_SO:VSSOP-8_2.3x2mm_P0.5mm" (layer "F.Cu")
    (tstamp 1337a6d6-af62-49ef-b05b-ddd621007bd7)
    (at 99.06 71.755)
    (descr "VSSOP-8 2.3x2mm Pitch 0.5mm")
    (tags "VSSOP-8 2.3x2mm Pitch 0.5mm")
    (property "LCSC" "C91874")
    (property "Sheetfile" "Amiga_27C400_Emulator_Rotary_Switch.kicad_sch")
    (property "Sheetname" "")
    (property "ki_description" "Dual OR Gate, Low-Voltage CMOS")
    (property "ki_keywords" "Dual Gate OR LVC CMOS")
    (path "/cecb48a9-8dd2-4aae-b1b1-331e5cdc7454")
    (attr smd)
    (fp_text reference "U1" (at 0 -2) (layer "F.SilkS")
        (effects (font (size 1 1) (thickness 0.15)))
      (tstamp 0c686fdb-fd0c-4907-9da6-d1c810840ee4)
    )
    (fp_text value "74LVC2G32" (at 0 2.2) (layer "F.Fab")
        (effects (font (size 1 1) (thickness 0.15)))
      (tstamp 9b269da8-7fa1-408c-a95d-c5d30f39dc57)
    )
    (fp_text user "${REFERENCE}" (at 0 0) (layer "F.Fab")
        (effects (font (size 0.5 0.5) (thickness 0.1)))
      (tstamp c8d5a3e4-30d6-4128-8a58-7ead05420a64)
    )
    (fp_line (start 1.1 -1.1) (end -1.9 -1.1)
      (stroke (width 0.12) (type solid)) (layer "F.SilkS") (tstamp 79ce7b9b-b6f2-40a1-8f90-379821af9ec1))
    (fp_line (start 1.1 1.1) (end -1.1 1.1)
      (stroke (width 0.12) (type solid)) (layer "F.SilkS") (tstamp b0fdef6e-1677-4f1f-9ce8-a328ba63a0eb))
    (fp_line (start -2.25 -1.25) (end 2.25 -1.25)
      (stroke (width 0.05) (type solid)) (layer "F.CrtYd") (tstamp 2925f1b9-4039-42d5-a0ae-cc22952a3b6b))
    (fp_line (start -2.25 1.25) (end -2.25 -1.25)
      (stroke (width 0.05) (type solid)) (layer "F.CrtYd") (tstamp 9069aec1-983f-43a9-84d7-e2d5bbba7658))
    (fp_line (start 2.25 -1.25) (end 2.25 1.25)
      (stroke (width 0.05) (type solid)) (layer "F.CrtYd") (tstamp c881081d-ed4e-4702-9a3d-3936d01efded))
    (fp_line (start 2.25 1.25) (end -2.25 1.25)
      (stroke (width 0.05) (type solid)) (layer "F.CrtYd") (tstamp ef17ca84-94bf-4c39-aa6f-0440a26452e8))
    (fp_line (start -1.15 1) (end -1.15 -0.45)
      (stroke (width 0.1) (type solid)) (layer "F.Fab") (tstamp 18dbbceb-6cca-446a-a158-8fb096f60d30))
    (fp_line (start -0.6 -1) (end -1.15 -0.45)
      (stroke (width 0.1) (type solid)) (layer "F.Fab") (tstamp 773c9fb5-365f-429a-8f2e-2f99d5bdc910))
    (fp_line (start -0.6 -1) (end 1.15 -1)
      (stroke (width 0.1) (type solid)) (layer "F.Fab") (tstamp c377f668-c48c-40e3-8ad2-0cc04ef5c876))
    (fp_line (start 1.15 -1) (end 1.15 1)
      (stroke (width 0.1) (type solid)) (layer "F.Fab") (tstamp e44fee3c-48bc-483b-ba6c-d10991557455))
    (fp_line (start 1.15 1) (end -1.15 1)
      (stroke (width 0.1) (type solid)) (layer "F.Fab") (tstamp 4a7b1fc7-41ce-4600-bf77-dc001e97dcdb))
    (pad "1" smd rect (at -1.55 -0.75 270) (size 0.3 0.8) (layers "F.Cu" "F.Paste" "F.Mask")
      (net 7 "Net-(SW1-D2)") (pintype "input") (tstamp 6f14f1af-defe-4ad4-a163-e1d79f4c4adb))
    (pad "2" smd rect (at -1.55 -0.25 270) (size 0.3 0.8) (layers "F.Cu" "F.Paste" "F.Mask")
      (net 5 "Net-(SW1-D3)") (pintype "input") (tstamp ed24ad2f-6675-4639-a5f0-f844cc3ce934))
    (pad "3" smd rect (at -1.55 0.25 270) (size 0.3 0.8) (layers "F.Cu" "F.Paste" "F.Mask")
      (net 4 "/A18") (pintype "output") (tstamp 591e2131-ad71-4b5d-92fc-3e67732a024c))
    (pad "4" smd rect (at -1.55 0.75 270) (size 0.3 0.8) (layers "F.Cu" "F.Paste" "F.Mask")
      (net 1 "GND") (pinfunction "GND") (pintype "power_in") (tstamp 3ce0ecf1-f607-4252-8f4b-40f2165b1813))
    (pad "5" smd rect (at 1.55 0.75 270) (size 0.3 0.8) (layers "F.Cu" "F.Paste" "F.Mask")
      (net 6 "Net-(SW1-D1)") (pintype "input") (tstamp 6022997e-6783-4cf2-8f10-d2e48b81e3d7))
    (pad "6" smd rect (at 1.55 0.25 270) (size 0.3 0.8) (layers "F.Cu" "F.Paste" "F.Mask")
      (net 5 "Net-(SW1-D3)") (pintype "input") (tstamp f117102c-95e7-40dd-9e90-65d530269042))
    (pad "7" smd rect (at 1.55 -0.25 270) (size 0.3 0.8) (layers "F.Cu" "F.Paste" "F.Mask")
      (net 3 "/A19") (pintype "output") (tstamp 38e8998b-8ec1-4e64-aa79-82fa2f1117e4))
    (pad "8" smd rect (at 1.55 -0.75 270) (size 0.3 0.8) (layers "F.Cu" "F.Paste" "F.Mask")
      (net 2 "+5V") (pinfunction "VCC") (pintype "power_in") (tstamp 1329b44c-35e4-4540-baae-4cea02416672))
    (model "${KICAD6_3DMODEL_DIR}/Package_SO.3dshapes/VSSOP-8_2.3x2mm_P0.5mm.wrl"
      (offset (xyz 0 0 0))
      (scale (xyz 1 1 1))
      (rotate (xyz 0 0 0))
    )
  )

  (footprint "Resistor_SMD:R_0805_2012Metric_Pad1.20x1.40mm_HandSolder" (layer "F.Cu")
    (tstamp 3e99630d-aa8a-4e5f-9b93-2cc9af2133aa)
    (at 104.14 71.12)
    (descr "Resistor SMD 0805 (2012 Metric), square (rectangular) end terminal, IPC_7351 nominal with elongated pad for handsoldering. (Body size source: IPC-SM-782 page 72, https://www.pcb-3d.com/wordpress/wp-content/uploads/ipc-sm-782a_amendment_1_and_2.pdf), generated with kicad-footprint-generator")
    (tags "resistor handsolder")
    (property "LCSC" "C217770")
    (property "Sheetfile" "Amiga_27C400_Emulator_Rotary_Switch.kicad_sch")
    (property "Sheetname" "")
    (property "ki_description" "Resistor")
    (property "ki_keywords" "R res resistor")
    (path "/a96c802f-bd7d-4903-a83f-d071f015c302")
    (attr smd)
    (fp_text reference "R1" (at -0.635 -1.65) (layer "F.SilkS")
        (effects (font (size 1 1) (thickness 0.15)))
      (tstamp 7a52959e-5a9c-48f9-831b-e40b7fefdfd8)
    )
    (fp_text value "10k" (at 0 1.65) (layer "F.Fab")
        (effects (font (size 1 1) (thickness 0.15)))
      (tstamp 17d27cd2-8e9e-48a4-a50d-55c5bb8c0a00)
    )
    (fp_text user "${REFERENCE}" (at 0 0) (layer "F.Fab")
        (effects (font (size 0.5 0.5) (thickness 0.08)))
      (tstamp 02c08986-a676-4ed3-95f8-bc6fbb2b1a2a)
    )
    (fp_line (start -0.227064 -0.735) (end 0.227064 -0.735)
      (stroke (width 0.12) (type solid)) (layer "F.SilkS") (tstamp cec02283-67a0-4f58-8db8-224d8ac596c4))
    (fp_line (start -0.227064 0.735) (end 0.227064 0.735)
      (stroke (width 0.12) (type solid)) (layer "F.SilkS") (tstamp 67c0fe04-b1f5-4d0b-a544-c5edc665594f))
    (fp_line (start -1.85 -0.95) (end 1.85 -0.95)
      (stroke (width 0.05) (type solid)) (layer "F.CrtYd") (tstamp af3d311b-63bc-4f6f-a939-79731be180b3))
    (fp_line (start -1.85 0.95) (end -1.85 -0.95)
      (stroke (width 0.05) (type solid)) (layer "F.CrtYd") (tstamp be7f53c7-0b25-4798-b18d-6178f9af2e09))
    (fp_line (start 1.85 -0.95) (end 1.85 0.95)
      (stroke (width 0.05) (type solid)) (layer "F.CrtYd") (tstamp 9e6f620c-bfb5-4781-9493-4d9e9fcb222b))
    (fp_line (start 1.85 0.95) (end -1.85 0.95)
      (stroke (width 0.05) (type solid)) (layer "F.CrtYd") (tstamp bcd204ba-0df3-4b4e-bc00-6ae19113d8cc))
    (fp_line (start -1 -0.625) (end 1 -0.625)
      (stroke (width 0.1) (type solid)) (layer "F.Fab") (tstamp 2fe5f458-1e59-4141-a458-2f9c0f29119e))
    (fp_line (start -1 0.625) (end -1 -0.625)
      (stroke (width 0.1) (type solid)) (layer "F.Fab") (tstamp 8d375c74-42f1-466b-b9c4-0e1f0089ef45))
    (fp_line (start 1 -0.625) (end 1 0.625)
      (stroke (width 0.1) (type solid)) (layer "F.Fab") (tstamp 4728b840-f298-4c7a-9bba-9d999c89e2e7))
    (fp_line (start 1 0.625) (end -1 0.625)
      (stroke (width 0.1) (type solid)) (layer "F.Fab") (tstamp fb35007f-8021-480c-947f-e013e0f2ab4e))
    (pad "1" smd roundrect (at -1 0) (size 1.2 1.4) (layers "F.Cu" "F.Paste" "F.Mask") (roundrect_rratio 0.208333)
      (net 5 "Net-(SW1-D3)") (pintype "passive") (tstamp 30dc3c86-456c-4072-b6dd-cb091d8d39fc))
    (pad "2" smd roundrect (at 1 0) (size 1.2 1.4) (layers "F.Cu" "F.Paste" "F.Mask") (roundrect_rratio 0.208333)
      (net 1 "GND") (pintype "passive") (tstamp 1e1c5e0b-607f-4a48-99a1-0b334a5aee66))
    (model "${KICAD6_3DMODEL_DIR}/Resistor_SMD.3dshapes/R_0805_2012Metric.wrl"
      (offset (xyz 0 0 0))
      (scale (xyz 1 1 1))
      (rotate (xyz 0 0 0))
    )
  )

  (footprint "TerminalBlock_MetzConnect:TerminalBlock_MetzConnect_Type059_RT06304HBWC_1x04_P3.50mm_Horizontal" (layer "F.Cu")
    (tstamp 43865bcf-e9bd-40a8-bef1-293b3d42d5d8)
    (at 104.31 65.855 180)
    (descr "terminal block Metz Connect Type059_RT06304HBWC, 4 pins, pitch 3.5mm, size 14x6.5mm^2, drill diamater 1.2mm, pad diameter 2.3mm, see http://www.metz-connect.com/de/system/files/productfiles/Datenblatt_310591_RT063xxHBWC_OFF-022684T.pdf, script-generated using https://github.com/pointhi/kicad-footprint-generator/scripts/TerminalBlock_MetzConnect")
    (tags "THT terminal block Metz Connect Type059_RT06304HBWC pitch 3.5mm size 14x6.5mm^2 drill 1.2mm pad 2.3mm")
    (property "Reichelt" "AKL 059-04")
    (property "Sheetfile" "Amiga_27C400_Emulator_Rotary_Switch.kicad_sch")
    (property "Sheetname" "")
    (property "ki_description" "Generic connector, single row, 01x04, script generated (kicad-library-utils/schlib/autogen/connector/)")
    (property "ki_keywords" "connector")
    (path "/bb37644c-07ee-4fb0-ba19-51d1a4e7f938")
    (attr through_hole)
    (fp_text reference "J1" (at 7.79 -3.86 -180) (layer "F.SilkS")
        (effects (font (size 1 1) (thickness 0.15)))
      (tstamp 34ade454-4bc6-42a1-ba9a-ee264824ae56)
    )
    (fp_text value "Conn_01x04" (at 5.25 4.76 -180) (layer "F.Fab")
        (effects (font (size 1 1) (thickness 0.15)))
      (tstamp 1437affa-2f21-44d3-882e-e4628642fd8f)
    )
    (fp_text user "${REFERENCE}" (at 5.25 2.95 -180) (layer "F.Fab")
        (effects (font (size 1 1) (thickness 0.15)))
      (tstamp 9312fbb4-bda9-4ebc-9967-76a22feb0306)
    )
    (fp_line (start -2.05 2.26) (end -2.05 4)
      (stroke (width 0.12) (type solid)) (layer "F.SilkS") (tstamp c7767720-7170-467c-8a5e-10e9fd292bfe))
    (fp_line (start -2.05 4) (end -0.55 4)
      (stroke (width 0.12) (type solid)) (layer "F.SilkS") (tstamp fbef7228-1b13-4f55-bdb4-8325f026ac00))
    (fp_line (start -1.81 -2.86) (end -1.81 3.76)
      (stroke (width 0.12) (type solid)) (layer "F.SilkS") (tstamp ffc5c1bf-901c-409f-bc91-fa41d6fb214a))
    (fp_line (start -1.81 -2.86) (end 12.31 -2.86)
      (stroke (width 0.12) (type solid)) (layer "F.SilkS") (tstamp 401498a2-d358-4987-a736-8275785be5bc))
    (fp_line (start -1.81 2.2) (end 12.31 2.2)
      (stroke (width 0.12) (type solid)) (layer "F.SilkS") (tstamp 9fead53e-5f7d-4303-90a1-6b80d4b93813))
    (fp_line (start -1.81 3.76) (end 12.31 3.76)
      (stroke (width 0.12) (type solid)) (layer "F.SilkS") (tstamp 52ac0c36-0c21-48ad-a3d9-dce32b8dedac))
    (fp_line (start 2.397 0.914) (end 2.321 0.99)
      (stroke (width 0.12) (type solid)) (layer "F.SilkS") (tstamp 3e34e37f-da3b-4ea9-8eb8-7e09c847a954))
    (fp_line (start 2.565 1.125) (end 2.511 1.18)
      (stroke (width 0.12) (type solid)) (layer "F.SilkS") (tstamp 83ddf23a-c9a1-4a94-b475-68b85862d3f1))
    (fp_line (start 4.49 -1.18) (end 4.436 -1.126)
      (stroke (width 0.12) (type solid)) (layer "F.SilkS") (tstamp 6df661ea-6e0f-47f7-be6f-e496d6a8dcab))
    (fp_line (start 4.68 -0.99) (end 4.604 -0.914)
      (stroke (width 0.12) (type solid)) (layer "F.SilkS") (tstamp ca3bb1f5-1cc5-4a70-9ff4-79f4da1ec7ad))
    (fp_line (start 5.897 0.914) (end 5.821 0.99)
      (stroke (width 0.12) (type solid)) (layer "F.SilkS") (tstamp 6601caed-5cad-4d68-97be-ee7d7594f712))
    (fp_line (start 6.065 1.125) (end 6.011 1.18)
      (stroke (width 0.12) (type solid)) (layer "F.SilkS") (tstamp df8ac471-3638-44af-b818-daa487dfd25c))
    (fp_line (start 7.99 -1.18) (end 7.936 -1.126)
      (stroke (width 0.12) (type solid)) (layer "F.SilkS") (tstamp f9ec2e8c-bb82-4b5f-92e3-1d64be2fcc94))
    (fp_line (start 8.18 -0.99) (end 8.104 -0.914)
      (stroke (width 0.12) (type solid)) (layer "F.SilkS") (tstamp 047dd6bf-ac24-4481-82ec-0cd6edf1e9cd))
    (fp_line (start 9.397 0.914) (end 9.321 0.99)
      (stroke (width 0.12) (type solid)) (layer "F.SilkS") (tstamp 5cefdb33-114e-43a6-8c04-111daac76f1f))
    (fp_line (start 9.565 1.125) (end 9.511 1.18)
      (stroke (width 0.12) (type solid)) (layer "F.SilkS") (tstamp f4cfc750-db3c-489d-9213-0e72725fa633))
    (fp_line (start 11.49 -1.18) (end 11.436 -1.126)
      (stroke (width 0.12) (type solid)) (layer "F.SilkS") (tstamp 1062bf1f-b5b2-4368-abd2-74ba8c0d64aa))
    (fp_line (start 11.68 -0.99) (end 11.604 -0.914)
      (stroke (width 0.12) (type solid)) (layer "F.SilkS") (tstamp 5e9370fa-9f20-4e71-9333-0d6b9e50c6c2))
    (fp_line (start 12.31 -2.86) (end 12.31 3.76)
      (stroke (width 0.12) (type solid)) (layer "F.SilkS") (tstamp 9ec23fa0-1d11-4032-8a9b-41b97dcfbf8b))
    (fp_arc (start -1.386645 0.705733) (mid -1.555906 -0.000711) (end -1.386 -0.707)
      (stroke (width 0.12) (type solid)) (layer "F.SilkS") (tstamp 505af5fd-8e9e-4d99-bef7-c2e78b687238))
    (fp_arc (start -0.705733 -1.386645) (mid 0.000711 -1.555906) (end 0.707 -1.386)
      (stroke (width 0.12) (type solid)) (layer "F.SilkS") (tstamp 9babe9ce-6379-4943-9c67-9035ac0a8467))
    (fp_arc (start 0.026444 1.555682) (mid -0.350695 1.515869) (end -0.707 1.386)
      (stroke (width 0.12) (type solid)) (layer "F.SilkS") (tstamp b5834299-10c6-4381-9e63-99ddcd5c3b4b))
    (fp_arc (start 0.705955 1.385515) (mid 0.363007 1.512035) (end 0 1.555)
      (stroke (width 0.12) (type solid)) (layer "F.SilkS") (tstamp 13777c37-e51f-48d8-a147-8e0cfe3807cb))
    (fp_arc (start 1.386645 -0.705733) (mid 1.555906 0.000711) (end 1.386 0.707)
      (stroke (width 0.12) (type solid)) (layer "F.SilkS") (tstamp 96fd7646-8253-475b-b494-65d166fdb3eb))
    (fp_circle (center 3.5 0) (end 5.055 0)
      (stroke (width 0.12) (type solid)) (fill none) (layer "F.SilkS") (tstamp 08860031-0d22-459f-9f55-f72b9c0cb0ae))
    (fp_circle (center 7 0) (end 8.555 0)
      (stroke (width 0.12) (type solid)) (fill none) (layer "F.SilkS") (tstamp b4a01d92-f1a7-4b54-9125-2b1d575c7ed7))
    (fp_circle (center 10.5 0) (end 12.055 0)
      (stroke (width 0.12) (type solid)) (fill none) (layer "F.SilkS") (tstamp d9029681-27f7-4fd5-b03d-954fb4851677))
    (fp_line (start -2.25 -3.3) (end -2.25 4.2)
      (stroke (width 0.05) (type solid)) (layer "F.CrtYd") (tstamp c3d2a8a1-939b-481b-aa6b-4bac5c953335))
    (fp_line (start -2.25 4.2) (end 12.75 4.2)
      (stroke (width 0.05) (type solid)) (layer "F.CrtYd") (tstamp 291cb703-dd01-4fb0-91e6-ff465aa54e15))
    (fp_line (start 12.75 -3.3) (end -2.25 -3.3)
      (stroke (width 0.05) (type solid)) (layer "F.CrtYd") (tstamp 810e7aa4-fca1-4287-b32d-26dc8bb845e0))
    (fp_line (start 12.75 4.2) (end 12.75 -3.3)
      (stroke (width 0.05) (type solid)) (layer "F.CrtYd") (tstamp ebfaff99-88f5-4ed1-b243-fa3acc1b73e9))
    (fp_line (start -1.75 -2.8) (end 12.25 -2.8)
      (stroke (width 0.1) (type solid)) (layer "F.Fab") (tstamp 46edc95d-864b-4a9a-b5c5-ab9cdc26e2a1))
    (fp_line (start -1.75 2.2) (end -1.75 -2.8)
      (stroke (width 0.1) (type solid)) (layer "F.Fab") (tstamp 9d0ca5c5-f505-4cfd-af22-7321e6786ffb))
    (fp_line (start -1.75 2.2) (end 12.25 2.2)
      (stroke (width 0.1) (type solid)) (layer "F.Fab") (tstamp cbdef686-10b7-4f4c-a3b2-591807715a40))
    (fp_line (start -0.25 3.7) (end -1.75 2.2)
      (stroke (width 0.1) (type solid)) (layer "F.Fab") (tstamp 5623b0ec-7530-400d-8c5b-408d266a09f7))
    (fp_line (start 0.876 -1.043) (end -1.043 0.875)
      (stroke (width 0.1) (type solid)) (layer "F.Fab") (tstamp 49479c53-b501-4d0d-96eb-7ea99821d86f))
    (fp_line (start 1.043 -0.875) (end -0.876 1.043)
      (stroke (width 0.1) (type solid)) (layer "F.Fab") (tstamp a74fee54-d448-40f9-a92f-85d9ae954957))
    (fp_line (start 4.376 -1.043) (end 2.458 0.875)
      (stroke (width 0.1) (type solid)) (layer "F.Fab") (tstamp 8ad63ead-b22e-4166-9291-f95f6fbcaba6))
    (fp_line (start 4.543 -0.875) (end 2.625 1.043)
      (stroke (width 0.1) (type solid)) (layer "F.Fab") (tstamp f53aaccf-24fa-4ad1-a870-c43a689c3e42))
    (fp_line (start 7.876 -1.043) (end 5.958 0.875)
      (stroke (width 0.1) (type solid)) (layer "F.Fab") (tstamp 07552fd6-dd71-4dec-bcdd-15f0814a16a5))
    (fp_line (start 8.043 -0.875) (end 6.125 1.043)
      (stroke (width 0.1) (type solid)) (layer "F.Fab") (tstamp 4da53703-8d94-47fb-b074-a3a741db7715))
    (fp_line (start 11.376 -1.043) (end 9.458 0.875)
      (stroke (width 0.1) (type solid)) (layer "F.Fab") (tstamp 16017642-2e02-4c81-ac2e-d766645340ec))
    (fp_line (start 11.543 -0.875) (end 9.625 1.043)
      (stroke (width 0.1) (type solid)) (layer "F.Fab") (tstamp 05e4c502-32fd-44a1-a02b-7d080843e8ce))
    (fp_line (start 12.25 -2.8) (end 12.25 3.7)
      (stroke (width 0.1) (type solid)) (layer "F.Fab") (tstamp 5ce0080c-5e99-41ca-9f3a-44735074260c))
    (fp_line (start 12.25 3.7) (end -0.25 3.7)
      (stroke (width 0.1) (type solid)) (layer "F.Fab") (tstamp cf0e3dda-1f99-4abf-8b61-91da131bb012))
    (fp_circle (center 0 0) (end 1.375 0)
      (stroke (width 0.1) (type solid)) (fill none) (layer "F.Fab") (tstamp fbbb4349-83ab-489c-b8df-72404f0b349a))
    (fp_circle (center 3.5 0) (end 4.875 0)
      (stroke (width 0.1) (type solid)) (fill none) (layer "F.Fab") (tstamp 78c1a81c-0c84-4b66-a224-125887ed12bb))
    (fp_circle (center 7 0) (end 8.375 0)
      (stroke (width 0.1) (type solid)) (fill none) (layer "F.Fab") (tstamp ddb4271d-dfbe-42cf-bb5c-3705e14042f1))
    (fp_circle (center 10.5 0) (end 11.875 0)
      (stroke (width 0.1) (type solid)) (fill none) (layer "F.Fab") (tstamp 33550aff-acb7-4597-bb40-98cfbae56506))
    (pad "1" thru_hole rect (at 0 0 180) (size 2.3 2.3) (drill 1.2) (layers "*.Cu" "*.Mask")
      (net 2 "+5V") (pinfunction "Pin_1") (pintype "passive") (tstamp 4f9aa7e2-0329-4648-abc6-bdabd57fd5a1))
    (pad "2" thru_hole circle (at 3.5 0 180) (size 2.3 2.3) (drill 1.2) (layers "*.Cu" "*.Mask")
      (net 3 "/A19") (pinfunction "Pin_2") (pintype "passive") (tstamp 0bf62b3c-ddb4-4e64-82dc-6c370ef68091))
    (pad "3" thru_hole circle (at 7 0 180) (size 2.3 2.3) (drill 1.2) (layers "*.Cu" "*.Mask")
      (net 4 "/A18") (pinfunction "Pin_3") (pintype "passive") (tstamp 58ba2a53-7f94-4a82-a933-f0dfc9034621))
    (pad "4" thru_hole circle (at 10.5 0 180) (size 2.3 2.3) (drill 1.2) (layers "*.Cu" "*.Mask")
      (net 1 "GND") (pinfunction "Pin_4") (pintype "passive") (tstamp b281df8a-90c9-4352-9598-23ffc8be189d))
    (model "${KICAD6_3DMODEL_DIR}/TerminalBlock_MetzConnect.3dshapes/TerminalBlock_MetzConnect_Type059_RT06304HBWC_1x04_P3.50mm_Horizontal.wrl"
      (offset (xyz 0 0 0))
      (scale (xyz 1 1 1))
      (rotate (xyz 0 0 0))
    )
  )

  (footprint "Resistor_SMD:R_0805_2012Metric_Pad1.20x1.40mm_HandSolder" (layer "F.Cu")
    (tstamp 54b00524-13bf-4bf1-a1ca-619cc832f365)
    (at 93.98 71.12 180)
    (descr "Resistor SMD 0805 (2012 Metric), square (rectangular) end terminal, IPC_7351 nominal with elongated pad for handsoldering. (Body size source: IPC-SM-782 page 72, https://www.pcb-3d.com/wordpress/wp-content/uploads/ipc-sm-782a_amendment_1_and_2.pdf), generated with kicad-footprint-generator")
    (tags "resistor handsolder")
    (property "LCSC" "C217770")
    (property "Sheetfile" "Amiga_27C400_Emulator_Rotary_Switch.kicad_sch")
    (property "Sheetname" "")
    (property "ki_description" "Resistor")
    (property "ki_keywords" "R res resistor")
    (path "/de365f7c-b3d4-4878-a32a-332fd8cf6d13")
    (attr smd)
    (fp_text reference "R3" (at 0.635 -1.65 -180) (layer "F.SilkS")
        (effects (font (size 1 1) (thickness 0.15)))
      (tstamp 2da95d0d-19d6-4377-b2ee-27c6b0a39533)
    )
    (fp_text value "10k" (at 0 1.65 -180) (layer "F.Fab")
        (effects (font (size 1 1) (thickness 0.15)))
      (tstamp 9cf31b0e-f4b2-484c-911a-954747d55cab)
    )
    (fp_text user "${REFERENCE}" (at 0 0 -180) (layer "F.Fab")
        (effects (font (size 0.5 0.5) (thickness 0.08)))
      (tstamp 7b64998c-1633-47c0-8811-8bb00ee6a70b)
    )
    (fp_line (start -0.227064 -0.735) (end 0.227064 -0.735)
      (stroke (width 0.12) (type solid)) (layer "F.SilkS") (tstamp 56f559be-95d6-43d0-9664-70e5223fc67d))
    (fp_line (start -0.227064 0.735) (end 0.227064 0.735)
      (stroke (width 0.12) (type solid)) (layer "F.SilkS") (tstamp cf4f20b6-9faf-43af-8987-07c1b9091b43))
    (fp_line (start -1.85 -0.95) (end 1.85 -0.95)
      (stroke (width 0.05) (type solid)) (layer "F.CrtYd") (tstamp c3047c10-72a1-40be-8b18-a2df808f95b9))
    (fp_line (start -1.85 0.95) (end -1.85 -0.95)
      (stroke (width 0.05) (type solid)) (layer "F.CrtYd") (tstamp 48ca3533-2a08-476c-a34a-ac9133ccc1e4))
    (fp_line (start 1.85 -0.95) (end 1.85 0.95)
      (stroke (width 0.05) (type solid)) (layer "F.CrtYd") (tstamp ffe0a128-c2ac-431f-8601-965ef9c03218))
    (fp_line (start 1.85 0.95) (end -1.85 0.95)
      (stroke (width 0.05) (type solid)) (layer "F.CrtYd") (tstamp b0f5cab2-60f4-47ec-bf3d-1689c06876ba))
    (fp_line (start -1 -0.625) (end 1 -0.625)
      (stroke (width 0.1) (type solid)) (layer "F.Fab") (tstamp 2a7e649c-b02c-4202-820d-3586b846b3dc))
    (fp_line (start -1 0.625) (end -1 -0.625)
      (stroke (width 0.1) (type solid)) (layer "F.Fab") (tstamp 256dae90-6718-45bf-87ba-1f8fd15f1e7e))
    (fp_line (start 1 -0.625) (end 1 0.625)
      (stroke (width 0.1) (type solid)) (layer "F.Fab") (tstamp d67dacdc-d14f-4aa3-9783-413b0cf8f311))
    (fp_line (start 1 0.625) (end -1 0.625)
      (stroke (width 0.1) (type solid)) (layer "F.Fab") (tstamp cc79168d-7a8f-4593-9eba-ad3f44b65b81))
    (pad "1" smd roundrect (at -1 0 180) (size 1.2 1.4) (layers "F.Cu" "F.Paste" "F.Mask") (roundrect_rratio 0.208333)
      (net 7 "Net-(SW1-D2)") (pintype "passive") (tstamp ba6f1426-91d0-4811-83c5-7f3ed67ccb66))
    (pad "2" smd roundrect (at 1 0 180) (size 1.2 1.4) (layers "F.Cu" "F.Paste" "F.Mask") (roundrect_rratio 0.208333)
      (net 1 "GND") (pintype "passive") (tstamp 1ed3c25d-3192-4e1b-9d86-997e83fc38b1))
    (model "${KICAD6_3DMODEL_DIR}/Resistor_SMD.3dshapes/R_0805_2012Metric.wrl"
      (offset (xyz 0 0 0))
      (scale (xyz 1 1 1))
      (rotate (xyz 0 0 0))
    )
  )

  (footprint "Capacitor_SMD:C_0805_2012Metric_Pad1.18x1.45mm_HandSolder" (layer "F.Cu")
    (tstamp a753eaa6-c58b-45f6-a5bb-341822b594ad)
    (at 99.06 74.93)
    (descr "Capacitor SMD 0805 (2012 Metric), square (rectangular) end terminal, IPC_7351 nominal with elongated pad for handsoldering. (Body size source: IPC-SM-782 page 76, https://www.pcb-3d.com/wordpress/wp-content/uploads/ipc-sm-782a_amendment_1_and_2.pdf, https://docs.google.com/spreadsheets/d/1BsfQQcO9C6DZCsRaXUlFlo91Tg2WpOkGARC1WS5S8t0/edit?usp=sharing), generated with kicad-footprint-generator")
    (tags "capacitor handsolder")
    (property "LCSC" "C1711")
    (property "Sheetfile" "Amiga_27C400_Emulator_Rotary_Switch.kicad_sch")
    (property "Sheetname" "")
    (property "ki_description" "Unpolarized capacitor")
    (property "ki_keywords" "cap capacitor")
    (path "/ca3a6bb4-fd27-419f-9ffe-7517b3fa758a")
    (attr smd)
    (fp_text reference "C1" (at 3.175 0.635) (layer "F.SilkS")
        (effects (font (size 1 1) (thickness 0.15)))
      (tstamp c5c76da2-f095-4fcf-94e6-f4248753f37a)
    )
    (fp_text value "100n" (at 0 1.68) (layer "F.Fab")
        (effects (font (size 1 1) (thickness 0.15)))
      (tstamp 03322416-52f8-49c8-9866-8d8daed0156f)
    )
    (fp_text user "${REFERENCE}" (at 0 0) (layer "F.Fab")
        (effects (font (size 0.5 0.5) (thickness 0.08)))
      (tstamp 02059cac-69e6-4f10-bc34-f8e5f71e07f9)
    )
    (fp_line (start -0.261252 -0.735) (end 0.261252 -0.735)
      (stroke (width 0.12) (type solid)) (layer "F.SilkS") (tstamp 84904c11-c52d-4636-9399-8d2e2ffbec89))
    (fp_line (start -0.261252 0.735) (end 0.261252 0.735)
      (stroke (width 0.12) (type solid)) (layer "F.SilkS") (tstamp 813dc709-06eb-4c01-8a6a-d8d6656de2c7))
    (fp_line (start -1.88 -0.98) (end 1.88 -0.98)
      (stroke (width 0.05) (type solid)) (layer "F.CrtYd") (tstamp eac6f198-97c6-4eaf-b8ef-0c567155c749))
    (fp_line (start -1.88 0.98) (end -1.88 -0.98)
      (stroke (width 0.05) (type solid)) (layer "F.CrtYd") (tstamp 34fdde71-893b-4e0d-9861-66cfbb581d15))
    (fp_line (start 1.88 -0.98) (end 1.88 0.98)
      (stroke (width 0.05) (type solid)) (layer "F.CrtYd") (tstamp 45ae4234-6feb-49d8-8859-e6a0322b17a3))
    (fp_line (start 1.88 0.98) (end -1.88 0.98)
      (stroke (width 0.05) (type solid)) (layer "F.CrtYd") (tstamp b0e27b9a-56d2-4dfc-8cbe-1e3382038fbb))
    (fp_line (start -1 -0.625) (end 1 -0.625)
      (stroke (width 0.1) (type solid)) (layer "F.Fab") (tstamp 3cbd3906-0975-48d8-ac25-e82ab3b9b294))
    (fp_line (start -1 0.625) (end -1 -0.625)
      (stroke (width 0.1) (type solid)) (layer "F.Fab") (tstamp 706ead73-02c0-4e68-80fa-9b0e1310d15d))
    (fp_line (start 1 -0.625) (end 1 0.625)
      (stroke (width 0.1) (type solid)) (layer "F.Fab") (tstamp aa66c7c8-4e0b-4a7c-8dde-59c41caa999a))
    (fp_line (start 1 0.625) (end -1 0.625)
      (stroke (width 0.1) (type solid)) (layer "F.Fab") (tstamp d48c5ba3-c208-4c5b-aaa3-9e758204fc3f))
    (pad "1" smd roundrect (at -1.0375 0) (size 1.175 1.45) (layers "F.Cu" "F.Paste" "F.Mask") (roundrect_rratio 0.212766)
      (net 1 "GND") (pintype "passive") (tstamp e53dace3-bc1b-491a-950a-85858a065898))
    (pad "2" smd roundrect (at 1.0375 0) (size 1.175 1.45) (layers "F.Cu" "F.Paste" "F.Mask") (roundrect_rratio 0.212766)
      (net 2 "+5V") (pintype "passive") (tstamp a41ee7d3-77da-426d-a363-b67382d654e3))
    (model "${KICAD6_3DMODEL_DIR}/Capacitor_SMD.3dshapes/C_0805_2012Metric.wrl"
      (offset (xyz 0 0 0))
      (scale (xyz 1 1 1))
      (rotate (xyz 0 0 0))
    )
  )

  (footprint "Resistor_SMD:R_0805_2012Metric_Pad1.20x1.40mm_HandSolder" (layer "F.Cu")
    (tstamp ff855647-d57f-454d-9f7e-ee0d42287068)
    (at 104.14 73.66)
    (descr "Resistor SMD 0805 (2012 Metric), square (rectangular) end terminal, IPC_7351 nominal with elongated pad for handsoldering. (Body size source: IPC-SM-782 page 72, https://www.pcb-3d.com/wordpress/wp-content/uploads/ipc-sm-782a_amendment_1_and_2.pdf), generated with kicad-footprint-generator")
    (tags "resistor handsolder")
    (property "LCSC" "C217770")
    (property "Sheetfile" "Amiga_27C400_Emulator_Rotary_Switch.kicad_sch")
    (property "Sheetname" "")
    (property "ki_description" "Resistor")
    (property "ki_keywords" "R res resistor")
    (path "/70b868b0-68d4-409b-a60b-224766263a2e")
    (attr smd)
    (fp_text reference "R2" (at 1.27 1.905) (layer "F.SilkS")
        (effects (font (size 1 1) (thickness 0.15)))
      (tstamp 902893b4-ff13-44d2-95da-dfa867da4ecc)
    )
    (fp_text value "10k" (at 0 1.65) (layer "F.Fab")
        (effects (font (size 1 1) (thickness 0.15)))
      (tstamp eede26ef-e6f2-4d8c-a140-14d27d5d1acf)
    )
    (fp_text user "${REFERENCE}" (at 0 0) (layer "F.Fab")
        (effects (font (size 0.5 0.5) (thickness 0.08)))
      (tstamp 28c878a9-ad8d-4704-a371-dac509073b7c)
    )
    (fp_line (start -0.227064 -0.735) (end 0.227064 -0.735)
      (stroke (width 0.12) (type solid)) (layer "F.SilkS") (tstamp 54e1d58c-9084-4e55-8994-27af8d71922a))
    (fp_line (start -0.227064 0.735) (end 0.227064 0.735)
      (stroke (width 0.12) (type solid)) (layer "F.SilkS") (tstamp 49a04abf-8798-4ebe-b79f-8e9bf8c57abe))
    (fp_line (start -1.85 -0.95) (end 1.85 -0.95)
      (stroke (width 0.05) (type solid)) (layer "F.CrtYd") (tstamp e0672840-179e-4ed0-bef6-1db32795d03c))
    (fp_line (start -1.85 0.95) (end -1.85 -0.95)
      (stroke (width 0.05) (type solid)) (layer "F.CrtYd") (tstamp 02c10a4a-5a8b-4102-8136-478bec670b8e))
    (fp_line (start 1.85 -0.95) (end 1.85 0.95)
      (stroke (width 0.05) (type solid)) (layer "F.CrtYd") (tstamp 32c97f5a-a563-41b5-9a8c-424126ee7282))
    (fp_line (start 1.85 0.95) (end -1.85 0.95)
      (stroke (width 0.05) (type solid)) (layer "F.CrtYd") (tstamp 30be6375-6601-4896-bbf4-8c243a9d56cf))
    (fp_line (start -1 -0.625) (end 1 -0.625)
      (stroke (width 0.1) (type solid)) (layer "F.Fab") (tstamp c33ba44e-4f0c-46cd-b539-fdcd2d26d5ac))
    (fp_line (start -1 0.625) (end -1 -0.625)
      (stroke (width 0.1) (type solid)) (layer "F.Fab") (tstamp 6f5386f7-3b1d-4d27-81ce-718c323ed7d8))
    (fp_line (start 1 -0.625) (end 1 0.625)
      (stroke (width 0.1) (type solid)) (layer "F.Fab") (tstamp 77c8910c-a854-42ac-8195-c2570650a8e1))
    (fp_line (start 1 0.625) (end -1 0.625)
      (stroke (width 0.1) (type solid)) (layer "F.Fab") (tstamp 39e17c1b-8ce6-4293-a5fb-4cf4a6fe7c95))
    (pad "1" smd roundrect (at -1 0) (size 1.2 1.4) (layers "F.Cu" "F.Paste" "F.Mask") (roundrect_rratio 0.208333)
      (net 6 "Net-(SW1-D1)") (pintype "passive") (tstamp 00a5dde8-67d4-4a09-a786-48f9413a0bbf))
    (pad "2" smd roundrect (at 1 0) (size 1.2 1.4) (layers "F.Cu" "F.Paste" "F.Mask") (roundrect_rratio 0.208333)
      (net 1 "GND") (pintype "passive") (tstamp f482f5d5-82dc-433d-8257-fa85eed98b91))
    (model "${KICAD6_3DMODEL_DIR}/Resistor_SMD.3dshapes/R_0805_2012Metric.wrl"
      (offset (xyz 0 0 0))
      (scale (xyz 1 1 1))
      (rotate (xyz 0 0 0))
    )
  )

  (gr_line (start 91.44 61.595) (end 106.68 61.595)
    (stroke (width 0.1) (type default)) (layer "Edge.Cuts") (tstamp 57422d38-4b82-46b3-a21b-2076d6942c7c))
  (gr_line (start 91.44 83.82) (end 91.44 61.595)
    (stroke (width 0.1) (type default)) (layer "Edge.Cuts") (tstamp 8f61cbd3-a2c3-412a-a36f-46b39ece5229))
  (gr_line (start 106.68 83.82) (end 91.44 83.82)
    (stroke (width 0.1) (type default)) (layer "Edge.Cuts") (tstamp ae46333e-00cd-486c-98bb-b3b0a31d36a3))
  (gr_line (start 106.68 61.595) (end 106.68 83.82)
    (stroke (width 0.1) (type default)) (layer "Edge.Cuts") (tstamp c3862d4b-f413-433e-a758-5ac4c61a32d4))
  (gr_text "A18" (at 97.3 63.1 90) (layer "B.SilkS") (tstamp 4b5baf6b-8a17-4af6-aded-a4921a1d40b5)
    (effects (font (size 1 1) (thickness 0.15)) (justify mirror))
  )
  (gr_text "     Encoder by\nRWahler@gmx\n.net\nManufactured in\nLicence by Alinea\nComputer\nwww.amiga-shop\n.net v${REVISION}" (at 106 82.8) (layer "B.SilkS") (tstamp 4ed3c6e2-91b0-49ad-a35e-70841f6b47fe)
    (effects (font (size 1 1) (thickness 0.15)) (justify left bottom mirror))
  )
  (gr_text "A19" (at 100.8 63.1 90) (layer "B.SilkS") (tstamp ed2242be-dce1-4581-bb06-257b129b07de)
    (effects (font (size 1 1) (thickness 0.15)) (justify mirror))
  )
  (gr_text "+5V" (at 104.3 63.1 90) (layer "B.SilkS") (tstamp edb8ec0b-95d6-4410-97cf-e853094d076a)
    (effects (font (size 1 1) (thickness 0.15)) (justify mirror))
  )
  (gr_text "GND" (at 93.8 63.1 90) (layer "B.SilkS") (tstamp ff72d50c-adc3-4759-b212-cb850e01447f)
    (effects (font (size 1 1) (thickness 0.15)) (justify mirror))
  )
  (dimension (type aligned) (layer "Dwgs.User") (tstamp 9030cd7f-3ba1-4391-afcb-93ad81c16768)
    (pts (xy 106.68 61.595) (xy 106.68 83.82))
    (height -2.54)
    (gr_text "22,225 mm" (at 108.07 72.7075 90) (layer "Dwgs.User") (tstamp 9030cd7f-3ba1-4391-afcb-93ad81c16768)
      (effects (font (size 1 1) (thickness 0.15)))
    )
    (format (prefix "") (suffix "") (units 3) (units_format 1) (precision 3))
    (style (thickness 0.15) (arrow_length 1.27) (text_position_mode 0) (extension_height 0.58642) (extension_offset 0.5) keep_text_aligned)
  )
  (dimension (type aligned) (layer "Dwgs.User") (tstamp c59bb58e-886a-4da2-b8ff-dfe6d9f224b5)
    (pts (xy 91.44 61.595) (xy 106.68 61.595))
    (height -2.54)
    (gr_text "15,24 mm" (at 99.06 57.905) (layer "Dwgs.User") (tstamp c59bb58e-886a-4da2-b8ff-dfe6d9f224b5)
      (effects (font (size 1 1) (thickness 0.15)))
    )
    (format (prefix "") (suffix "") (units 3) (units_format 1) (precision 2))
    (style (thickness 0.15) (arrow_length 1.27) (text_position_mode 0) (extension_height 0.58642) (extension_offset 0.5) keep_text_aligned)
  )

  (segment (start 92.98 71.12) (end 93.81 70.29) (width 0.4) (layer "F.Cu") (net 1) (tstamp 41c27a9f-2fe3-4037-9714-197e05cfb21b))
  (segment (start 97.51 72.67) (end 97.51 72.555) (width 0.4) (layer "F.Cu") (net 1) (tstamp 5f78e364-330f-4b44-abbe-34dbd5fe1c48))
  (segment (start 93.81 70.29) (end 93.81 65.855) (width 0.4) (layer "F.Cu") (net 1) (tstamp 9bb03974-1ec2-452b-b6fb-50179438c841))
  (segment (start 104.775 69.85) (end 103.505 68.58) (width 0.4) (layer "F.Cu") (net 1) (tstamp a678f215-e984-46bf-acd5-8887fd292e9f))
  (segment (start 96.52 74.93) (end 96.52 73.66) (width 0.4) (layer "F.Cu") (net 1) (tstamp b5c0d70a-236e-426a-9e3e-5529db8faf0c))
  (segment (start 105.14 71.12) (end 105.14 70.215) (width 0.4) (layer "F.Cu") (net 1) (tstamp bafdea9b-6b10-463e-8a44-b1466b8f2918))
  (segment (start 98.0225 74.93) (end 96.52 74.93) (width 0.4) (layer "F.Cu") (net 1) (tstamp d2b48fac-2455-4827-8f8a-aeccb96f396f))
  (segment (start 105.14 73.66) (end 105.14 71.12) (width 0.4) (layer "F.Cu") (net 1) (tstamp ef688f97-31e1-4445-89e5-1626c84e2d05))
  (segment (start 105.14 70.215) (end 104.775 69.85) (width 0.4) (layer "F.Cu") (net 1) (tstamp f5cc6d4e-8b30-4df3-bafa-f08b323e6517))
  (segment (start 96.52 73.66) (end 97.51 72.67) (width 0.4) (layer "F.Cu") (net 1) (tstamp f5d9a393-4015-4c81-8259-06b47f2e5914))
  (via (at 104.775 69.85) (size 0.8) (drill 0.4) (layers "F.Cu" "B.Cu") (net 1) (tstamp 3e1dc5c0-c4c0-47f4-946b-01bdf00ce11a))
  (via (at 96.52 73.66) (size 0.8) (drill 0.4) (layers "F.Cu" "B.Cu") (net 1) (tstamp 64aeadbd-3168-4efb-a880-97788dc92328))
  (via (at 103.505 68.58) (size 0.8) (drill 0.4) (layers "F.Cu" "B.Cu") (net 1) (tstamp f7f0e768-1013-4b71-95c4-65c99f298ad4))
  (via (at 96.52 74.93) (size 0.8) (drill 0.4) (layers "F.Cu" "B.Cu") (net 1) (tstamp fd1a7e27-11cf-4153-8805-e23075ed4e50))
  (segment (start 96.5275 68.5725) (end 93.81 65.855) (width 0.4) (layer "B.Cu") (net 1) (tstamp 5ab8da02-30ed-4268-9317-827413284f61))
  (segment (start 102.87 68.58) (end 102.8625 68.5725) (width 0.4) (layer "B.Cu") (net 1) (tstamp 5d0b2c9b-5e0b-4e66-9323-bfa471e8bd3d))
  (segment (start 94.615 74.295) (end 93.81 73.49) (width 0.4) (layer "B.Cu") (net 1) (tstamp 6f7dea38-ac4b-48b9-96a4-56491c21c38d))
  (segment (start 96.52 73.66) (end 96.52 74.295) (width 0.4) (layer "B.Cu") (net 1) (tstamp 72bfe6b3-c1c8-464f-9cd4-aeaaf4bcef44))
  (segment (start 96.52 74.295) (end 94.615 74.295) (width 0.4) (layer "B.Cu") (net 1) (tstamp ac85f626-50a6-4ef4-b741-3552af447e03))
  (segment (start 104.775 69.85) (end 103.505 68.58) (width 0.4) (layer "B.Cu") (net 1) (tstamp b0d46478-d73b-457d-ab54-e70ba432c741))
  (segment (start 96.52 74.295) (end 96.52 74.93) (width 0.4) (layer "B.Cu") (net 1) (tstamp d3ec0835-7072-4894-864c-eb39ed08f1ce))
  (segment (start 96.535 68.58) (end 96.5275 68.5725) (width 0.4) (layer "B.Cu") (net 1) (tstamp da5c0410-217f-4c48-861d-880549799a5a))
  (segment (start 93.81 73.49) (end 93.81 65.855) (width 0.4) (layer "B.Cu") (net 1) (tstamp e6076d09-8b14-4912-b2cd-77f1a391dde6))
  (segment (start 103.505 68.58) (end 102.87 68.58) (width 0.4) (layer "B.Cu") (net 1) (tstamp e71a2cf1-c0fc-46d0-987f-b898706ed1ec))
  (segment (start 102.8625 68.5725) (end 96.5275 68.5725) (width 0.4) (layer "B.Cu") (net 1) (tstamp f86ee90e-1de0-4b94-9f64-7f6e3bb40109))
  (segment (start 100.61 71.005) (end 99.81 71.005) (width 0.25) (layer "F.Cu") (net 2) (tstamp 0bf27b2d-8771-4370-8df4-ab87cf841642))
  (segment (start 99.695 74.5275) (end 100.0975 74.93) (width 0.4) (layer "F.Cu") (net 2) (tstamp 24c6f002-4c32-4f39-a526-b2c0948cdc6c))
  (segment (start 100.0975 74.93) (end 100.0975 79.7775) (width 0.4) (layer "F.Cu") (net 2) (tstamp 2ef4ce49-6c5f-4ea0-919f-3db86e6d67eb))
  (segment (start 99.06 70.255) (end 99.81 71.005) (width 0.4) (layer "F.Cu") (net 2) (tstamp 34be182b-dee4-4d4c-977f-c1db0e2c0182))
  (segment (start 102.235 64.135) (end 99.695 64.135) (width 0.4) (layer "F.Cu") (net 2) (tstamp 4434749a-f060-4e0b-8b4e-1e425fccb853))
  (segment (start 100.0975 79.7775) (end 100.33 80.01) (width 0.4) (layer "F.Cu") (net 2) (tstamp 45695075-039d-4a0e-bbed-42bd3c056cce))
  (segment (start 95.31 80.01) (end 100.33 80.01) (width 0.4) (layer "F.Cu") (net 2) (tstamp 500329f2-15c1-4a0d-ab26-30dee9c38578))
  (segment (start 99.695 71.12) (end 99.695 74.5275) (width 0.4) (layer "F.Cu") (net 2) (tstamp 7ffc7670-d4df-4ef0-a71a-12cd503a26c9))
  (segment (start 104.31 65.855) (end 103.955 65.855) (width 0.4) (layer "F.Cu") (net 2) (tstamp 96dc54e8-a574-418f-86cb-ce27160884c0))
  (segment (start 103.955 65.855) (end 102.235 64.135) (width 0.4) (layer "F.Cu") (net 2) (tstamp aa6c71d0-af7c-4a0c-a285-6ff4b038d89a))
  (segment (start 100.33 80.01) (end 102.81 80.01) (width 0.4) (layer "F.Cu") (net 2) (tstamp baa180d5-7502-4808-81ee-fa468c11effd))
  (segment (start 99.695 64.135) (end 99.06 64.77) (width 0.4) (layer "F.Cu") (net 2) (tstamp c51fe58b-ed15-4be2-b513-5598d0295519))
  (segment (start 99.81 71.005) (end 99.695 71.12) (width 0.4) (layer "F.Cu") (net 2) (tstamp d53e0e0a-487a-4c92-9bf8-21ff711013db))
  (segment (start 99.06 64.77) (end 99.06 70.255) (width 0.4) (layer "F.Cu") (net 2) (tstamp edc96d04-7553-4efe-b15f-2ca7ad70db69))
  (segment (start 101.6 71.12) (end 101.6 70.485) (width 0.25) (layer "F.Cu") (net 3) (tstamp 0cf6c3e1-4c33-4b81-930d-c93dae511691))
  (segment (start 101.215 71.505) (end 101.6 71.12) (width 0.25) (layer "F.Cu") (net 3) (tstamp 19eceee4-108e-45f3-b3d1-bb6917e849d7))
  (segment (start 100.81 69.695) (end 100.81 65.855) (width 0.25) (layer "F.Cu") (net 3) (tstamp 3cfbe390-8a71-4995-a476-d3663b93563a))
  (segment (start 100.61 71.505) (end 101.215 71.505) (width 0.25) (layer "F.Cu") (net 3) (tstamp ce589680-1287-4ca0-887c-9320448fc0f3))
  (segment (start 101.6 70.485) (end 100.81 69.695) (width 0.25) (layer "F.Cu") (net 3) (tstamp d58614b7-7d19-4532-9a9a-ca9b8cf66b56))
  (segment (start 98.425 71.755) (end 98.425 66.97) (width 0.25) (layer "F.Cu") (net 4) (tstamp 0ce2cd63-dbac-44fc-8ecc-6ae1e88864cf))
  (segment (start 97.51 72.005) (end 98.175 72.005) (width 0.25) (layer "F.Cu") (net 4) (tstamp 2611968d-3d77-424c-86fb-5332aa0e8242))
  (segment (start 98.175 72.005) (end 98.425 71.755) (width 0.25) (layer "F.Cu") (net 4) (tstamp 59342910-6d9e-49b8-9fda-657c981541d3))
  (segment (start 98.425 66.97) (end 97.31 65.855) (width 0.25) (layer "F.Cu") (net 4) (tstamp e906a39c-a727-4214-b765-9aee11894bbe))
  (segment (start 95.31 77.47) (end 95.25 77.47) (width 0.25) (layer "F.Cu") (net 5) (tstamp 0a1d01bb-82b7-42c1-8373-ce3e3e195c5d))
  (segment (start 96.77 71.505) (end 97.51 71.505) (width 0.25) (layer "F.Cu") (net 5) (tstamp 0e040f25-a12a-49c3-9787-b94509e2a18b))
  (segment (start 102.235 71.755) (end 101.985 72.005) (width 0.25) (layer "F.Cu") (net 5) (tstamp 144cf8cc-fa97-4368-af9b-0ee086d85314))
  (segment (start 103.14 71.12) (end 102.87 71.12) (width 0.25) (layer "F.Cu") (net 5) (tstamp 2e1554f4-5d0e-4886-8597-52e415fb042c))
  (segment (start 95.25 73.025) (end 96.77 71.505) (width 0.25) (layer "F.Cu") (net 5) (tstamp 4e15c75d-2577-44a2-8fea-b171cd17cade))
  (segment (start 95.25 77.47) (end 95.25 73.025) (width 0.25) (layer "F.Cu") (net 5) (tstamp 7d10766b-9f23-4feb-940d-3049769056e4))
  (segment (start 101.985 72.005) (end 100.61 72.005) (width 0.25) (layer "F.Cu") (net 5) (tstamp cfec4c9e-c0c7-4e68-bdd8-604f2bdcdebb))
  (segment (start 102.87 71.12) (end 102.235 71.755) (width 0.25) (layer "F.Cu") (net 5) (tstamp dea357c3-8a85-4ab1-83dc-fd3668c428e3))
  (via (at 102.235 71.755) (size 0.8) (drill 0.4) (layers "F.Cu" "B.Cu") (net 5) (tstamp 200cb095-709a-421f-a463-8cf21ba683d0))
  (via (at 95.25 73.025) (size 0.8) (drill 0.4) (layers "F.Cu" "B.Cu") (net 5) (tstamp 446cab94-4bbe-4ce2-89d0-f76e95d5d1b9))
  (segment (start 95.25 73.025) (end 96.52 71.755) (width 0.25) (layer "B.Cu") (net 5) (tstamp 6b7f1028-c381-4f8a-90dd-f3984b60c537))
  (segment (start 96.52 71.755) (end 102.235 71.755) (width 0.25) (layer "B.Cu") (net 5) (tstamp a595990e-a8e8-4f66-b274-fc8b41a4e432))
  (segment (start 104.775 75.295) (end 103.14 73.66) (width 0.25) (layer "F.Cu") (net 6) (tstamp 157dff0f-0aac-4476-a3dc-39426a6c3bfa))
  (segment (start 101.985 72.505) (end 103.14 73.66) (width 0.25) (layer "F.Cu") (net 6) (tstamp 2de3f820-9b5b-4058-8e51-a57c3932954b))
  (segment (start 104.775 81.28) (end 104.775 75.295) (width 0.25) (layer "F.Cu") (net 6) (tstamp 322f6a04-370b-4584-9db6-e13531142103))
  (segment (start 103.505 82.55) (end 104.775 81.28) (width 0.25) (layer "F.Cu") (net 6) (tstamp 450ff466-1c5c-44c4-b39f-2dd4492d8d0d))
  (segment (start 100.61 72.505) (end 101.985 72.505) (width 0.25) (layer "F.Cu") (net 6) (tstamp 6cebaafc-f759-4070-afa9-f746e9a8ed56))
  (segment (start 102.81 82.55) (end 103.505 82.55) (width 0.25) (layer "F.Cu") (net 6) (tstamp de031554-433d-427e-b757-c8c7742bf7a7))
  (segment (start 95.095 71.005) (end 94.98 71.12) (width 0.25) (layer "F.Cu") (net 7) (tstamp 2f2596c6-6346-4633-b2e5-bb2b636b6354))
  (segment (start 97.51 71.005) (end 95.095 71.005) (width 0.25) (layer "F.Cu") (net 7) (tstamp 97f12c06-fd44-47ec-a7fe-0c2a46b47ef8))
  (segment (start 93.345 81.28) (end 94.615 82.55) (width 0.25) (layer "F.Cu") (net 7) (tstamp a2d32af4-2c0f-4d55-83e0-af6812f10a6d))
  (segment (start 94.98 71.39) (end 93.345 73.025) (width 0.25) (layer "F.Cu") (net 7) (tstamp b59b6584-3fd9-4340-ae0b-d1170854eb3b))
  (segment (start 93.345 73.025) (end 93.345 81.28) (width 0.25) (layer "F.Cu") (net 7) (tstamp e1b8e66b-f1af-4f78-9a7c-53a6068aaa96))
  (segment (start 94.98 71.12) (end 94.98 71.39) (width 0.25) (layer "F.Cu") (net 7) (tstamp ee7c7baf-6a8e-4283-98ec-fe6329b8a6a4))
  (segment (start 94.615 82.55) (end 95.31 82.55) (width 0.25) (layer "F.Cu") (net 7) (tstamp fb460211-5b10-4ec0-b0cc-0c44c26bfb27))

)
